…
## PART 1: Density Plots

Using the dataset obtained from FSU's [Florida Climate Center](https://climatecenter.fsu.edu/climate-data-access-tools/downloadable-data), for a station at Tampa International Airport (TPA) for 2022, attempt to recreate the charts shown below which were generated using data from 2016. You can read the 2022 dataset using the code below: 


``` r
library(tidyverse)
weather_tpa <- read_csv("https://raw.githubusercontent.com/aalhamadani/datasets/master/tpa_weather_2022.csv")
# random sample 
sample_n(weather_tpa, 30)
```

```
## # A tibble: 30 × 7
##     year month   day precipitation max_temp min_temp ave_temp
##    <dbl> <dbl> <dbl>         <dbl>    <dbl>    <dbl>    <dbl>
##  1  2022     4    12          0          88       66     77  
##  2  2022    10    21          0          77       54     65.5
##  3  2022     5     4          0          88       73     80.5
##  4  2022     5    11          0          86       64     75  
##  5  2022    11    16          0.14       79       62     70.5
##  6  2022     7    30          0          97       81     89  
##  7  2022     9     9          0.13       88       75     81.5
##  8  2022     6    23          0          93       79     86  
##  9  2022     9    12          0.03       91       77     84  
## 10  2022    12    22          0.15       69       59     64  
## # ℹ 20 more rows
```
…
``` r
new_concrete
```

```
## # A tibble: 1,030 × 10
##    Cement Blast_Furnace_Slag Fly_Ash Water Superplasticizer Coarse_Aggregate
##     <dbl>              <dbl>   <dbl> <dbl>            <dbl>            <dbl>
##  1   540                  0        0   162              2.5            1040 
##  2   540                  0        0   162              2.5            1055 
##  3   332.               142.       0   228              0               932 
##  4   332.               142.       0   228              0               932 
##  5   199.               132.       0   192              0               978.
##  6   266                114        0   228              0               932 
##  7   380                 95        0   228              0               932 
##  8   380                 95        0   228              0               932 
##  9   266                114        0   228              0               932 
## 10   475                  0        0   228              0               932 
## # ℹ 1,020 more rows
## # ℹ 4 more variables: Fine_Aggregate <dbl>, Age <dbl>,
## #   Concrete_compressive_strength <dbl>, strength_range <fct>
```
…
